…
```

## Part 3: Transform data with dplyr and finding insight the data

### 1.) หาสินค้าทั้งหมดที่อยู่ในรัฐ Colorado และมีประเภท Technology
```R
superstore %>% select(State, City) %>% 
   distinct() %>% 
   arrange(desc(State))
```
**Result :**
```
# A tibble: 35 x 1
   `Product Name`                                                       
   <chr>                                                                
 1 Logitech K350 2.4Ghz Wireless Keyboard                               
 2 KeyTronic 6101 Series - Keyboard - Black                             
 3 GE 30524EE4                                                          
 4 AT&T SB67148 SynJ                                                    
 5 Jabra BIZ 2300 Duo QD Duo Corded Headset                             
 6 Imation 32GB Pocket Pro USB 3.0 Flash Drive - 32 GB - Black - 1 P ...
 7 Jabra SPEAK 410                                                      
 8 ClearOne CHATAttach 160 - speaker phone                              
 9 Samsung Galaxy S III - 16GB - pebble blue (T-Mobile)                 
10 AT&T 17929 Lendline Telephone                                        
# ... with 25 more rows
```
…
